final.knit
…
Overall, strong accountability systems and low corruption appear far
more important than economic status or climate

library(tidyverse)
library(lubridate)

library(tidyverse)
library(ggplot2)
pctConf <- read_delim("WB_Pct_of_Conf_Elections.csv")
pctConf

## # A tibble: 2,030 × 40
##    STRUCTURE     STRUCTURE_ID    ACTION FREQ  FREQ_LABEL REF_AREA REF_AREA_LABEL
##    <chr>         <chr>           <chr>  <chr> <chr>      <chr>    <chr>         
##  1 datastructure WB.DATA360:DS_… I      _O    Other      AND      Andorra       
##  2 datastructure WB.DATA360:DS_… I      _O    Other      AND      Andorra       
##  3 datastructure WB.DATA360:DS_… I      _O    Other      AND      Andorra       
##  4 datastructure WB.DATA360:DS_… I      _O    Other      AND      Andorra       
##  5 datastructure WB.DATA360:DS_… I      _O    Other      AND      Andorra       
##  6 datastructure WB.DATA360:DS_… I      _O    Other      AND      Andorra       
##  7 datastructure WB.DATA360:DS_… I      _O    Other      AND      Andorra       
##  8 datastructure WB.DATA360:DS_… I      _O    Other      AND      Andorra       
##  9 datastructure WB.DATA360:DS_… I      _O    Other      AND      Andorra       
## 10 datastructure WB.DATA360:DS_… I      _O    Other      AND      Andorra       
## # ℹ 2,020 more rows
## # ℹ 33 more variables: INDICATOR <chr>, INDICATOR_LABEL <chr>, SEX <chr>,
## #   SEX_LABEL <chr>, AGE <chr>, AGE_LABEL <chr>, URBANISATION <chr>,
## #   URBANISATION_LABEL <chr>, UNIT_MEASURE <chr>, UNIT_MEASURE_LABEL <chr>,
## #   COMP_BREAKDOWN_1 <chr>, COMP_BREAKDOWN_1_LABEL <chr>,
## #   COMP_BREAKDOWN_2 <chr>, COMP_BREAKDOWN_2_LABEL <chr>,
## #   COMP_BREAKDOWN_3 <chr>, COMP_BREAKDOWN_3_LABEL <chr>, TIME_PERIOD <dbl>, …

pctConf <- pctConf %>%
  select(c(REF_AREA_LABEL, TIME_PERIOD, OBS_VALUE, URBANISATION, AGE, SEX, COMP_BREAKDOWN_2, COMP_BREAKDOWN_1)) %>%
  filter(URBANISATION == "_T" & AGE == "_T" & SEX == "_T" & COMP_BREAKDOWN_2 == "_T" & COMP_BREAKDOWN_1 == "_T")
pctConf

## # A tibble: 147 × 8
##    REF_AREA_LABEL TIME_PERIOD OBS_VALUE URBANISATION AGE   SEX  
##    <chr>                <dbl>     <dbl> <chr>        <chr> <chr>
##  1 Andorra               2018      50.2 _T           _T    _T   
##  2 Angola                2020      30.5 _T           _T    _T   
##  3 Argentina             2020      16.1 _T           _T    _T   
##  4 Argentina             2018      23.7 _T           _T    _T   
##  5 Armenia               2021      28.8 _T           _T    _T   
##  6 Australia             2019      65.5 _T           _T    _T   
##  7 Bangladesh            2018      60.0 _T           _T    _T   
##  8 Benin                 2017      48.8 _T           _T    _T   
##  9 Benin                 2020      48.4 _T           _T    _T   
## 10 Bolivia               2020      28.1 _T           _T    _T   
## # ℹ 137 more rows
## # ℹ 2 more variables: COMP_BREAKDOWN_2 <chr>, COMP_BREAKDOWN_1 <chr>
…
## # A tibble: 3 × 3
##   REF_AREA_LABEL TIME_PERIOD OBS_VALUE
##   <chr>                <dbl>     <dbl>
## 1 Guatemala             2020      18.4
## 2 Costa Rica            2020      45.8
## 3 Chile                 2020      45.7

horacc <- read_delim("VDEM_CORE_V2X_HORACC.csv")
dim(horacc)

## [1] 25816    38

horacc

## # A tibble: 25,816 × 38
##    STRUCTURE     STRUCTURE_ID ACTION FREQ_ID FREQ_NAME REF_AREA_ID REF_AREA_NAME
##    <chr>         <chr>        <chr>  <chr>   <chr>     <chr>       <chr>        
##  1 datastructure WB.DATA360:… I      A       Annual    MEX         Mexico       
##  2 datastructure WB.DATA360:… I      A       Annual    MEX         Mexico       
##  3 datastructure WB.DATA360:… I      A       Annual    MEX         Mexico       
##  4 datastructure WB.DATA360:… I      A       Annual    MEX         Mexico       
##  5 datastructure WB.DATA360:… I      A       Annual    MEX         Mexico       
##  6 datastructure WB.DATA360:… I      A       Annual    MEX         Mexico       
##  7 datastructure WB.DATA360:… I      A       Annual    MEX         Mexico       
##  8 datastructure WB.DATA360:… I      A       Annual    MEX         Mexico       
##  9 datastructure WB.DATA360:… I      A       Annual    MEX         Mexico       
## 10 datastructure WB.DATA360:… I      A       Annual    MEX         Mexico       
## # ℹ 25,806 more rows
## # ℹ 31 more variables: INDICATOR_ID <chr>, INDICATOR_NAME <chr>, SEX_ID <chr>,
## #   SEX_NAME <chr>, AGE_ID <chr>, AGE_NAME <chr>, URBANISATION_ID <chr>,
## #   URBANISATION_NAME <chr>, UNIT_MEASURE_ID <chr>, UNIT_MEASURE_NAME <chr>,
## #   COMP_BREAKDOWN_1_ID <chr>, COMP_BREAKDOWN_1_NAME <chr>,
## #   COMP_BREAKDOWN_2_ID <chr>, COMP_BREAKDOWN_2_NAME <chr>,
## #   COMP_BREAKDOWN_3_ID <chr>, COMP_BREAKDOWN_3_NAME <chr>, …

horacc <- horacc%>%
  select(c(REF_AREA_NAME, TIME_PERIOD, OBS_VALUE)) %>%
  filter(!is.na(OBS_VALUE) & TIME_PERIOD >= 2015 & TIME_PERIOD <= 2022)
horacc

## # A tibble: 1,400 × 3
##    REF_AREA_NAME TIME_PERIOD OBS_VALUE
##    <chr>               <dbl>     <dbl>
##  1 Mexico               2015     0.349
##  2 Mexico               2016     0.383
##  3 Mexico               2017     0.423
##  4 Mexico               2018     0.251
##  5 Mexico               2019    -0.066
##  6 Mexico               2020    -0.024
##  7 Mexico               2021     0.046
##  8 Mexico               2022    -0.136
##  9 Suriname             2015     0.992
## 10 Suriname             2016     0.868
## # ℹ 1,390 more rows
…
